67
100
98
113
120
111
115
100
99
31
101
104
107
100
114
31
118
104
107
107
31
97
100
31
114
115
110
113
100
99
31
103
96
117
104
109
102
31
115
103
100
31
114
96
108
100
31
109
96
108
100
31
96
114
31
100
109
98
113
104
111
115
100
99
31
101
104
107
100
31
97
116
115
31
118
104
115
103
31
38
45
99
100
98
38
31
100
119
115
100
109
114
104
110
109
45
